{
  "Author": "ImGui",
  "Description": "The built-in light ImGui theme.",
  "Colors": {
    "Success": [0, 1, 0, 1],
    "Warning": [1, 1, 0, 1],
    "Error": [1, 0, 0, 1],
    "Text": [0, 0, 0, 1],
    "TextDisabled": [0.6, 0.6, 0.6, 1],
    "IconButton": [0, 0, 0, 1],
    "IconButtonActive": [0, 0, 0, 1],
    "IconButtonHovered": [0, 0, 0, 1],
    "WindowBg": [0.94, 0.94, 0.94, 1],
    "ChildBg": [0, 0, 0, 0],
    "PopupBg": [1, 1, 1, 0.98],
    "Border": [0, 0, 0, 0.3],
    "BorderShadow": [0, 0, 0, 0],
    "FrameBg": [1, 1, 1, 1],
    "FrameBgHovered": [0.26, 0.59, 0.98, 0.4],
    "FrameBgActive": [0.26, 0.59, 0.98, 0.67],
    "TitleBg": [0.96, 0.96, 0.96, 1],
    "TitleBgActive": [0.82, 0.82, 0.82, 1],
    "TitleBgCollapsed": [1, 1, 1, 0.51],
    "MenuBarBg": [0.86, 0.86, 0.86, 1],
    "ScrollbarBg": [0.98, 0.98, 0.98, 0.53],
    "ScrollbarGrab": [0.69, 0.69, 0.69, 0.8],
    "ScrollbarGrabHovered": [0.49, 0.49, 0.49, 0.8],
    "ScrollbarGrabActive": [0.49, 0.49, 0.49, 1],
    "CheckMark": [0.26, 0.59, 0.98, 1],
    "SliderGrab": [0.26, 0.59, 0.98, 0.78],
    "SliderGrabActive": [0.46, 0.54, 0.8, 0.6],
    "Button": [0.26, 0.59, 0.98, 0.4],
    "ButtonHovered": [0.26, 0.59, 0.98, 1],
    "ButtonActive": [0.06, 0.53, 0.98, 1],
    "Header": [0.26, 0.59, 0.98, 0.31],
    "HeaderHovered": [0.26, 0.59, 0.98, 0.8],
    "HeaderActive": [0.26, 0.59, 0.98, 1],
    "Separator": [0.39, 0.39, 0.39, 0.62],
    "SeparatorHovered": [0.14, 0.44, 0.8, 0.78],
    "SeparatorActive": [0.14, 0.44, 0.8, 1],
    "ResizeGrip": [0.35, 0.35, 0.35, 0.17],
    "ResizeGripHovered": [0.26, 0.59, 0.98, 0.67],
    "ResizeGripActive": [0.26, 0.59, 0.98, 0.95],
    "Tab": [0.764, 0.797, 0.836, 0.931],
    "TabHovered": [0.26, 0.59, 0.98, 0.8],
    "TabActive": [0.596, 0.728, 0.884, 1],
    "TabUnfocused": [0.9208, 0.9274, 0.9352, 0.9862],
    "TabUnfocusedActive": [0.7416, 0.8208, 0.9144, 1],
    "DockingPreview": [0.26, 0.59, 0.98, 0.217],
    "DockingEmptyBg": [0.2, 0.2, 0.2, 1],
    "PlotLines": [0.39, 0.39, 0.39, 1],
    "PlotLinesHovered": [1, 0.43, 0.35, 1],
    "PlotHistogram": [0.9, 0.7, 0, 1],
    "PlotHistogramHovered": [1, 0.45, 0, 1],
    "TableHeaderBg": [0.78, 0.87, 0.98, 1],
    "TableBorderStrong": [0.57, 0.57, 0.64, 1],
    "TableBorderLight": [0.68, 0.68, 0.74, 1],
    "TableRowBg": [0, 0, 0, 0],
    "TableRowBgAlt": [0.3, 0.3, 0.3, 0.09],
    "TextSelectedBg": [0.26, 0.59, 0.98, 0.35],
    "DragDropTarget": [0.26, 0.59, 0.98, 0.95],
    "NavHighlight": [0.26, 0.59, 0.98, 0.8],
    "NavWindowingHighlight": [0.7, 0.7, 0.7, 0.7],
    "NavWindowingDimBg": [0.2, 0.2, 0.2, 0.2],
    "ModalWindowDimBg": [0.2, 0.2, 0.2, 0.35]
  },
  "Options": {
    "Alpha": 1.0,
    "DisabledAlpha": 0.6,
    "WindowPadding": [8, 8],
    "WindowRounding": 0.0,
    "WindowBorderSize": 1.0,
    "WindowMinSize": [32, 32],
    "WindowTitleAlign": [0, 0.5],
    "WindowMenuButtonPosition": 0,
    "ChildRounding": 0.0,
    "ChildBorderSize": 1.0,
    "PopupRounding": 0.0,
    "PopupBorderSize": 1.0,
    "FramePadding": [4, 3],
    "FrameRounding": 0.0,
    "FrameBorderSize": 0.0,
    "ItemSpacing": [8, 4],
    "ItemInnerSpacing": [4, 4],
    "CellPadding": [4, 2],
    "IndentSpacing": 21.0,
    "ColumnsMinSpacing": 6.0,
    "ScrollbarSize": 14.0,
    "ScrollbarRounding": 9.0,
    "GrabMinSize": 10.0,
    "GrabRounding": 0.0,
    "LogSliderDeadzone": 4.0,
    "TabRounding": 4.0,
    "TabBorderSize": 0.0,
    "TabMinWidthForCloseButton": 0.0,
    "ColorButtonPosition": 1,
    "ButtonTextAlign": [0.5, 0.5],
    "SelectableTextAlign": [0, 0],
    "DisplayWindowPadding": [19, 19],
    "DisplaySafeAreaPadding": [3, 3],
    "AntiAliasedLines": true,
    "AntiAliasedLinesUseTex": true,
    "AntiAliasedFill": true,
    "CurveTessellationTol": 1.25,
    "CircleTessellationMaxError": 0.3
  }
}